Joint Profiling of Native and R Code • gprofiler
…
The following example writes the iris data 100 times to an in-memory SQLite database and collects profiling data. By default, the profiling data are collected in two files, 1.prof (native) and 1.prof.out (R).

library(DBI)

gprofiler::start_profiler()
con <- dbConnect(RSQLite::SQLite(), ":memory:")
invisible(lapply(1:100, function(x)
  dbWriteTable(con, paste0("iris", x), iris)))
dbDisconnect(con)
gprofiler::stop_profiler()

A unified view is created with get_profiler_traces(). Currently this returns a nested data frame with two list columns, one for the native trace and one for the R trace. Each row represents one sample:

gprofiler::get_profiler_traces()
#> # A tibble: 45 x 3
#>     time gprofiler             rprof
#>    <int>    <list>            <list>
#>  1     1 <chr [1]> <tibble [41 x 7]>
#>  2     2 <chr [1]> <tibble [45 x 7]>
#>  3     3 <chr [1]> <tibble [38 x 7]>
#>  4     4 <chr [1]> <tibble [37 x 7]>
#>  5     5 <chr [1]> <tibble [58 x 7]>
#>  6     6 <chr [1]> <tibble [34 x 7]>
#>  7     7 <chr [1]> <tibble [57 x 7]>
#>  8     8 <chr [1]> <tibble [60 x 7]>
#>  9     9 <chr [1]> <tibble [61 x 7]>
#> 10    10 <chr [1]> <tibble [46 x 7]>
#> # ... with 35 more rows

Below is another example where an R function calls a C++ function that calls back into R.

gprofiler::start_profiler()
gprofiler::callback2_r()
#> NULL
gprofiler::stop_profiler()
gprofiler::get_profiler_traces()
#> # A tibble: 117 x 3
#>     time gprofiler             rprof
#>    <int>    <list>            <list>
#>  1     1 <chr [1]> <tibble [25 x 7]>
#>  2     2 <chr [1]> <tibble [25 x 7]>
#>  3     3 <chr [1]> <tibble [25 x 7]>
#>  4     4 <chr [1]> <tibble [25 x 7]>
#>  5     5 <chr [1]> <tibble [25 x 7]>
#>  6     6 <chr [1]> <tibble [25 x 7]>
#>  7     7 <chr [1]> <tibble [25 x 7]>
#>  8     8 <chr [1]> <tibble [25 x 7]>
#>  9     9 <chr [1]> <tibble [25 x 7]>
#> 10    10 <chr [1]> <tibble [25 x 7]>
#> # ... with 107 more rows
…
