Introduction to joint profiling of native and R code • jointprof
…
Furthermore stop_profiler() returns an in-memory representation of the profiled data, invisibly. See ?profiler::validate_profile for a description of the data format.

out_file <- tempfile("jointprof", fileext = ".out")
start_profiler(out_file)
#> Temporary files: /tmp/RtmpIW8ynj/jointprof51e77dceb262.prof, /tmp/RtmpIW8ynj/jointprof51e730922be6.out
for (i in 1:10) test(700)
profile_data <- stop_profiler()

profile_data
#> Profile data: 579 samples

profile_data$samples
#> # A tibble: 579 x 4
#>    value locations          .pprof_locations  .rprof_locations  
#>    <int> <list>             <list>            <list>            
#>  1     1 <tibble [116 × 1]> <tibble [63 × 1]> <tibble [116 × 1]>
#>  2     1 <tibble [76 × 1]>  <tibble [63 × 1]> <tibble [76 × 1]> 
#>  3     1 <tibble [42 × 1]>  <tibble [63 × 1]> <tibble [41 × 1]> 
#>  4     1 <tibble [121 × 1]> <tibble [63 × 1]> <tibble [121 × 1]>
#>  5     1 <tibble [204 × 1]> <tibble [63 × 1]> <tibble [204 × 1]>
#>  6     1 <tibble [43 × 1]>  <tibble [63 × 1]> <tibble [42 × 1]> 
#>  7     1 <tibble [85 × 1]>  <tibble [63 × 1]> <tibble [85 × 1]> 
#>  8     1 <tibble [42 × 1]>  <tibble [63 × 1]> <tibble [41 × 1]> 
#>  9     1 <tibble [42 × 1]>  <tibble [63 × 1]> <tibble [41 × 1]> 
#> 10     1 <tibble [190 × 1]> <tibble [63 × 1]> <tibble [190 × 1]>
#> # … with 569 more rows
profile_data$locations
#> # A tibble: 451 x 3
#>    location_id function_id  line
#>          <int>       <int> <int>
#>  1           1           1     0
#>  2           2           2     4
#>  3           3           3     0
#>  4           4           4     0
#>  5           5           5     4
#>  6           6           6     0
#>  7           7           7     0
#>  8           8           8     0
#>  9           9           9     0
#> 10          10          10     0
#> # … with 441 more rows
profile_data$functions
#> # A tibble: 172 x 5
#>    function_id name        system_name filename start_line
#>          <int> <chr>       <chr>       <chr>         <int>
#>  1           1 -           -           ""                0
#>  2           2 -           -           <text>            4
#>  3           3 ___elt      ...elt      ""                0
#>  4           4 _Call       .Call       ""                0
#>  5           5 +           +           <text>            4
#>  6           6 <=          <=          ""                0
#>  7           7 <Anonymous> <Anonymous> ""                0
#>  8           8 gc          <GC>        ""                0
#>  9           9 block_exec  block_exec  ""                0
#> 10          10 c           c           ""                0
#> # … with 162 more rows
…
